{
  "project_info": {
    "project_number": "955977648793",
    "firebase_url": "https://fbhostmitest.firebaseio.com",
    "project_id": "fbhostmitest",
    "storage_bucket": "fbhostmitest.appspot.com"
  },
  "client": [
    {
      "client_info": {
        "mobilesdk_app_id": "1:955977648793:android:82f239b8c074f654",
        "android_client_info": {
          "package_name": "com.devper.registropedido"
        }
      },
      "oauth_client": [
        {
          "client_id": "955977648793-9f5tg6qstket1ujqodbid3ckl4h9o4cs.apps.googleusercontent.com",
          "client_type": 3
        }
      ],
      "api_key": [
        {
          "current_key": "AIzaSyB7wC1m-zrQ4DC3EVwcpOCbxYGN_BGjSZM"
        }
      ],
      "services": {
        "analytics_service": {
          "status": 1
        },
        "appinvite_service": {
          "status": 1,
          "other_platform_oauth_client": []
        },
        "ads_service": {
          "status": 2
        }
      }
    }
  ],
  "configuration_version": "1"
}